2790356596914 main ===== Starting new run =====				2790462631625 main ===== Starting new run =====
2790358516814 Consumer started iteration #0				2790462885209 Consumer started iteration #0
2790358597857 Consumer has acquired the lock				2790462934623 Consumer has acquired the lock
2790358656871 Consumer awaking other party				2790462982899 Consumer awaking other party
2790358720270 Consumer box is empty					2790463027555 Consumer box is empty

2790358937707 Producer started iteration #0				2790472965289 Producer started iteration #0
2790359003720 Producer has acquired the lock				2790473027453 Producer has acquired the lock
2790359057363 Producer awaking other party				2790473081082 Producer awaking other party
2790359118231 Producer filled the box	---				2790473135574 Producer filled the box

2790359190526 Consumer woke up						2790473196601 Producer has released the lock, finished iteration #0
2790359249771 Consumer emptied the box					2790473248472 Producer started iteration #1
2790359311295 Consumer has released the lock, finished iteration #0	2790473294738 Producer has acquired the lock
2790359575872 Consumer started iteration #1				2790473339217 Producer awaking other party
2790359631528 Consumer has acquired the lock				2790473407060 Producer box is occupied
2790359685469 Consumer awaking other party				2790473464852 Consumer woke up	---
2790359739038 Consumer box is empty					2790473515118 Consumer emptied the box
2790359805899 Producer has released the lock, finished iteration #0	2790473568642 Consumer has released the lock, finished iteration #0
2790359866587 Producer started iteration #1				2790473619525 Consumer started iteration #1
2790359918911 Producer has acquired the lock				2790473671414 Consumer has acquired the lock
2790359977186 Producer awaking other party				2790473717635 Consumer awaking other party
2790360048320 Producer filled the box					2790473766545 Consumer box is empty
2790360116682 Consumer woke up						2790473826795 Producer woke up
2790360170362 Consumer emptied the box					2790473876865 Producer filled the box
2790360233104 Consumer has released the lock, finished iteration #1	2790473930098 Producer has released the lock, finished iteration #1
2790360299177 Consumer done						2790473977999 Producer done
2790360517694 Producer has released the lock, finished iteration #1	<<< Consumer is stuck in wait() >>>
2790360585479 Producer done




























